ass2_bit_serial_binary_adder/ass2_bit_serial_binary_adder.sim/sim_1/behav/xsim/serial_adder_tb.vcd
$date
   Fri Sep 18 00:49:45 2020
$end
$version
  2020.1
$end
$timescale
  1ps
$end
$scope module serial_adder_tb $end
$var reg 4 ! data_a [3:0] $end
$var reg 4 " data_b [3:0] $end
$var reg 1 # clk $end
$var reg 1 $ reset $end
$var wire 4 % out [3:0] $end
$var wire 1 & cout $end
$scope module s_adder $end
$var wire 4 ' data_a [3:0] $end
$var wire 4 ( data_b [3:0] $end
$var wire 1 ) clk $end
$var wire 1 * reset $end
$var reg 4 + out [3:0] $end
$var reg 3 , count [2:0] $end
$var reg 1 - enable $end
$var reg 1 . cout $end
$var wire 1 / wire_a $end
$var wire 1 0 wire_b $end
$var wire 1 1 cout_temp $end
$var wire 1 2 cin $end
$var wire 1 3 sum $end
$scope module piso_a $end
$var wire 1 4 enable $end
$var wire 1 ) clk $end
$var wire 1 * rst $end
$var wire 4 ' data [3:0] $end
$var reg 1 5 out $end
$var reg 4 6 memory [3:0] $end
$upscope $end
$scope module piso_b $end
$var wire 1 7 enable $end
$var wire 1 ) clk $end
$var wire 1 * rst $end
$var wire 4 ( data [3:0] $end
$var reg 1 8 out $end
$var reg 4 9 memory [3:0] $end
$upscope $end
$scope module adder $end
$var wire 1 / a $end
$var wire 1 0 b $end
$var wire 1 2 cin $end
$var wire 1 3 sum $end
$var wire 1 1 cout $end
$upscope $end
$scope module dff $end
$var wire 1 1 d $end
$var wire 1 ) clk $end
$var wire 1 : enable $end
$var wire 1 * reset $end
$var reg 1 ; out $end
$upscope $end
$upscope $end
$upscope $end
$enddefinitions $end
#0
$dumpvars
b10 !
b10 "
0#
0$
bx %
x&
b10 '
b10 (
0)
0*
bx +
bx ,
x-
x.
x/
x0
x1
x2
x3
x4
x5
bx 6
x7
x8
bx 9
x:
x;
$end
#10000
1#
1)
#20000
0#
0)
#30000
1#
1)
#40000
0#
0)
#50000
1#
1)
#60000
0#
0)
#70000
1#
1)
#80000
0#
0)
#90000
1#
1)
#100000
0#
0)
#110000
1#
1)
#120000
0#
0)
#130000
1#
1)
#140000
0#
0)
#150000
1#
1)
#160000
0#
0)
#170000
1#
1)
#180000
0#
0)
#190000
1#
1)
#200000
b100 !
b101 "
0#
1$
b0 %
b100 '
b101 (
0)
1*
b0 +
b0 ,
1-
0/
00
01
02
03
14
05
b100 6
17
08
b101 9
1:
0;
#210000
1#
1)
b0 +
05
08
0;
#220000
0#
0)
#230000
1#
1)
b0 +
05
08
0;
#240000
0#
0)
#250000
1#
1)
b0 +
05
08
0;
#260000
0#
0)
#270000
1#
1)
b0 +
05
08
0;
#280000
0#
0)
#290000
1#
1)
b0 +
05
08
0;
#300000
0#
0)
#310000
1#
1)
b0 +
05
08
0;
#320000
0#
0)
#330000
1#
1)
b0 +
05
08
0;
#340000
0#
0)
#350000
1#
1)
b0 +
05
08
0;
#360000
0#
0)
#370000
1#
1)
b0 +
05
08
0;
#380000
0#
0)
#390000
1#
1)
b0 +
05
08
0;
